%YAML 1.1
%TAG !u! tag:unity3d.com,2011:
--- !u!21 &2100000
Material:
  serializedVersion: 8
  m_ObjectHideFlags: 0
  m_CorrespondingSourceObject: {fileID: 0}
  m_PrefabInstance: {fileID: 0}
  m_PrefabAsset: {fileID: 0}
  m_Name: Arrow
  m_Shader: {fileID: 46, guid: 0000000000000000f000000000000000, type: 0}
  m_Parent: {fileID: 0}
  m_ModifiedSerializedProperties: 0
  m_ValidKeywords:
  - _EMISSION
  - _NORMALMAP
  m_InvalidKeywords:
  - S_OCCLUSION
  - S_RECEIVE_SHADOWS
  - S_SPECULAR_METALLIC
  m_LightmapFlags: 1
  m_EnableInstancingVariants: 0
  m_DoubleSidedGI: 0
  m_CustomRenderQueue: -1
  stringTagMap:
    OriginalShader: Standard
  disabledShaderPasses: []
  m_LockedProperties: 
  m_SavedProperties:
    serializedVersion: 3
    m_TexEnvs:
    - _BumpMap:
        m_Texture: {fileID: 2800000, guid: 5d44bb3b4714e2b4da3b93d3c921a1e6, type: 3}
        m_Scale: {x: 1, y: 1}
        m_Offset: {x: 0, y: 0}
    - _DetailAlbedoMap:
        m_Texture: {fileID: 0}
        m_Scale: {x: 1, y: 1}
        m_Offset: {x: 0, y: 0}
    - _DetailMask:
        m_Texture: {fileID: 0}
        m_Scale: {x: 1, y: 1}
        m_Offset: {x: 0, y: 0}
    - _DetailNormalMap:
        m_Texture: {fileID: 0}
        m_Scale: {x: 1, y: 1}
        m_Offset: {x: 0, y: 0}
    - _EmissionMap:
        m_Texture: {fileID: 2800000, guid: e98c08d59b9bc734e9058f5b3d2e7142, type: 3}
        m_Scale: {x: 1, y: 1}
        m_Offset: {x: 0, y: 0}
    - _MainTex:
        m_Texture: {fileID: 2800000, guid: 0f09256f7da973b45a660eefd832b56b, type: 3}
        m_Scale: {x: 1, y: 1}
        m_Offset: {x: 0, y: 0}
    - _MetallicGlossMap:
        m_Texture: {fileID: 0}
        m_Scale: {x: 1, y: 1}
        m_Offset: {x: 0, y: 0}
    - _OcclusionMap:
        m_Texture: {fileID: 2800000, guid: 27df4f73a506cc94d99cc2e0c71966a6, type: 3}
        m_Scale: {x: 1, y: 1}
        m_Offset: {x: 0, y: 0}
    - _ParallaxMap:
        m_Texture: {fileID: 0}
        m_Scale: {x: 1, y: 1}
        m_Offset: {x: 0, y: 0}
    - _SpecGlossMap:
        m_Texture: {fileID: 0}
        m_Scale: {x: 1, y: 1}
        m_Offset: {x: 0, y: 0}
    - g_tOverrideLightmap:
        m_Texture: {fileID: 0}
        m_Scale: {x: 1, y: 1}
        m_Offset: {x: 0, y: 0}
    m_Ints: []
    m_Floats:
    - _BumpScale: 1
    - _Cutoff: 0.5
    - _DetailNormalMapScale: 1
    - _DstBlend: 0
    - _FogMultiplier: 1
    - _GlossMapScale: 1
    - _Glossiness: 0.5
    - _GlossyReflections: 1
    - _Metallic: 0
    - _Mode: 0
    - _OcclusionStrength: 1
    - _OcclusionStrengthDirectDiffuse: 1
    - _OcclusionStrengthDirectSpecular: 1
    - _OcclusionStrengthIndirectDiffuse: 1
    - _OcclusionStrengthIndirectSpecular: 1
    - _Parallax: 0.02
    - _SmoothnessTextureChannel: 0
    - _SpecularHighlights: 1
    - _SpecularMode: 2
    - _SrcBlend: 1
    - _UVSec: 0
    - _ZWrite: 1
    - g_bReceiveShadows: 1
    - g_bUnlit: 0
    - g_bWorldAlignedTexture: 0
    - g_flCubeMapScalar: 1
    - g_flReflectanceBias: 0
    - g_flReflectanceMax: 1
    - g_flReflectanceMin: 0
    - g_flReflectanceScale: 1
    m_Colors:
    - _Color: {r: 1, g: 1, b: 1, a: 1}
    - _EmissionColor: {r: 0, g: 0, b: 0, a: 1}
    - _SpecColor: {r: 0.19999996, g: 0.19999996, b: 0.19999996, a: 1}
    - g_vWorldAlignedNormalTangentU: {r: -1, g: 0, b: 0, a: 0}
    - g_vWorldAlignedNormalTangentV: {r: 0, g: 0, b: 1, a: 0}
    - g_vWorldAlignedTextureNormal: {r: 0, g: 1, b: 0, a: 0}
    - g_vWorldAlignedTexturePosition: {r: 0, g: 0, b: 0, a: 0}
    - g_vWorldAlignedTextureSize: {r: 1, g: 1, b: 1, a: 0}
  m_BuildTextureStacks: []
  m_AllowLocking: 1
